…
    ## Installing package into '/home/lms48/R/x86_64-pc-linux-gnu-library/4.1'
    ## (as 'lib' is unspecified)

## Example

The `lmstt` package contains the `df_apply` function which will apply a
function and any arguments to a selection of columns in a dataframe. An
example is shown below on the `iris` dataset.

``` r
library(lmstt)
df_apply(iris, round, is.numeric, identity, digit = 0)
```

    ## # A tibble: 150 × 5
    ##    Sepal.Length Sepal.Width Petal.Length Petal.Width Species
    ##           <dbl>       <dbl>        <dbl>       <dbl> <fct>  
    ##  1            5           4            1           0 setosa 
    ##  2            5           3            1           0 setosa 
    ##  3            5           3            1           0 setosa 
    ##  4            5           3            2           0 setosa 
    ##  5            5           4            1           0 setosa 
    ##  6            5           4            2           0 setosa 
    ##  7            5           3            1           0 setosa 
    ##  8            5           3            2           0 setosa 
    ##  9            4           3            1           0 setosa 
    ## 10            5           3            2           0 setosa 
    ## # … with 140 more rows
…
